{
  "type": "service_account",
  "project_id": "main-project-fcb47",
  "private_key_id": "28c9ac7ab91dfe1191027fb93b0f8bc5b2879628",
  "private_key": "-----BEGIN PRIVATE KEY-----\nMIIEvQIBADANBgkqhkiG9w0BAQEFAASCBKcwggSjAgEAAoIBAQCm+6weueDQV1JL\njhfokR9xbqkD8LqDsVvjMjgFeL+R+YVCltfCw5vo8FZhk2fVqoDxCVhnH7e7USz/\n0E6lLqk1E8617mvYbWOV/4l2J/ginF/GnLVyQjgyWLKWlUbZfbDEMo/MRqvQkL3B\nTkzkgGZQ23iymb4Baloi3HjdQflH13vfaH9p5wTRCwjCI9Rx8+vjS5JgJxAorlxk\nrPwFBbwvDa4ZLF8+n+vYzAtHz1I+7MEQ+RUFAqoAH3IzKEW/LE7CzlrhVbj6PufM\nZcSZt74xNQFpWz1H8eJI1b0QKkUwMFXgrEqGChk1HPIw62a3AV+jq2QSEBkYbXPt\nEHqGXYK5AgMBAAECggEACW6IPZEOuX3hLFrZj12ZGtFfExWnF1aug8H7p5V3LqHb\nLNRz2fCuDwV6P5cxo4A2ucanG2YPfPFcGxPzSUG+NX0JrT2LEmW1XQzawRWHXr8Z\n6tBBsHM8lN1tMvO6FYFTuXVIqYdpX4W5biCD19lHzjPjWKU19gMBldwBqK+4Cp5y\nIXCRhgJv9KqkrKiAwEZsp8zK4Af3gOB038xLPx5eu7JU1K3Iebj0xpC0Y2kpYklC\nE6b+B+J0c6uR5625yeYjtMIPMTOsJaNSbr8MZas0M95RpvvnYN1ENCor3L7JOmyh\n/y4V3EKF8XnPVbRWsYUfCFoc/k9/HTOLdlTziHZZTQKBgQDZ4ehOOzwjuDZ8uKXP\nJcZu2q5UU6v1XAikL02SulilJ3rM7f8hfcWFrgw8TAhBJWKb1FRTlSiREGMdG6KD\nCVBStEZ385wc05csUa9rlxX5HSixyDRLzXjRX4VAEzkDp2Zq6FGQK4yrVoxUPNN7\nSnfAyLhrikPkbJlBe2X+tF62/QKBgQDEMi8pGlaUduS9mfcV2822JDGoSQnOg2nU\nedNz6cwQpTG2eyplJ6REWRXggbaEnKrz0EDYrphbsso+s9vlseezCNvhY5yTHzSr\nGhFC4en194luVNEYU2giozLInc6yZoOXVpvntqqTBhZuPAnsKO7CHBEvg9+tstrF\n3A1IddXNbQKBgHYxHNJrQZli0XPgullfdYAm8lBePzbPIQTngB4rJfEZNH08UZz6\nXA7DNnHzELs+K3q6uK/KhwICMLHWjtakU8U5c8yYAsSEZ0osWYt0nv/OuIeQQgYo\nxPRW67KxesknouA1fCFH7nv3bBI6GMKVx9Z1S81SaLfdzVj/NnnvoD2FAoGBAI02\nGZ+Z52sgT+7vnFnNRLiuQFeBil9rUoat0LYDNu9cFvXinFcGO0M+Y3KdqgK0yI6H\n+8R5lguaGdsblVAzxjKkU65cBdwWf9APCRF8jOqOagpRXdYGYlNb5zdh7d2Vz2zj\n137liMwde5OH/xRNOdvYW745Sos4yiHTCnR265XZAoGAVy3fOIp3luARcGZi63mq\nD/KN96xk+ymSw1jhmkr/vuAwEjoRV40oTT4eLc76In/Esx4TaQ0VriRhjhqNVNlZ\nr3tpB8HXfHjaHg52b9lohx10i2G2ZRpQ77Vn5+9F9797bFiY++EE35lr/E5v0z20\n17iJZ6SX1q2zQpODm9LYTOc=\n-----END PRIVATE KEY-----\n",
  "client_email": "firebase-adminsdk-ommbl@main-project-fcb47.iam.gserviceaccount.com",
  "client_id": "102594837707983981681",
  "auth_uri": "https://accounts.google.com/o/oauth2/auth",
  "token_uri": "https://oauth2.googleapis.com/token",
  "auth_provider_x509_cert_url": "https://www.googleapis.com/oauth2/v1/certs",
  "client_x509_cert_url": "https://www.googleapis.com/robot/v1/metadata/x509/firebase-adminsdk-ommbl%40main-project-fcb47.iam.gserviceaccount.com",
  "universe_domain": "googleapis.com"
}
